@startuml

start
if (Check water level) then (low)
    :Show water level error;
    end
else (ok)
    if (Check bean count) then (not close)
        :Show bean count error;
        end
    else (ok)
        stop
    endif
endif

@enduml