@startuml

start
if (Check water level) then (low)
    :Show water level error;
    end
else (ok)
    if (Check bean count) then (not close)
        :Show bean count error;
        end
    else (ok)
        fork
            while (Water temperature) is (low)
                :Heat water;
            endwhile (ok)
        fork again
            repeat :Grind beans;
            repeat while (Coffee strength) is (weak) not (strong);
        end merge
        :Filter coffee;
        stop
    endif
endif

@enduml