@startuml

actor "Customer" as customer
box "Coffee Machine"
    boundary "UI" as ui
    control "CoffeController" as controller
    participant "Water Heater" as water
    participant "Bean Grinder" as beans
    participant "Drip tray" as tray
end box

customer -> tray : Place mug
customer -> ui : Place order
ui -> controller : Brew command
controller -> water : Add water
controller -> beans: Add beans
controller -> tray: Filter coffee
controller --> ui : Display ready
tray --> customer : Remove mug

@enduml