@startuml

actor "Customer" as customer
box "Coffee Machine"
    boundary "UI" as ui
    control "CoffeController" as controller
    participant "Water Heater" as water
    participant "Bean Grinder" as beans
    participant "Drip tray" as tray
end box

customer -> tray : Place mug
activate tray
customer -> ui : Place order
ui -> controller : Brew command
controller -> controller : Self check
alt low water level, too few beans or drip tray full
    controller -->x ui : Display error
else self check: OK
    controller -> water : Add water
    activate water
    controller -> beans: Add beans
    activate beans
    controller -> tray: Filter coffee
    deactivate water
    deactivate beans
    controller --> ui : Display ready
    tray --> customer : Remove mug
    deactivate tray
end

@enduml