@startuml

hide empty description

[*] -> Idle : Power on
Idle --> Heat : Water cold
Heat --> Idle : Temp OK
Heat --> Error : Water level low
Idle --> Grind : Start button 
Grind --> Error : Bean count low
Grind --> Filter : Add water
Filter --> Idle : Done
Error -> [*] : Display message

@enduml