@startuml

left to right direction

actor Customer as c
actor Barista as b

package "Coffee machine" {
  usecase "Order coffee" as order
  usecase "Remove mug" as remove
  usecase "Refill beans" as beans
  usecase "Empty drip tray" as empty
  usecase "Service & repair" as service
}

c --> order
remove .> order : <<extend>>
c -> beans
c -> empty

b --> service

@enduml
